%YAML 1.1
%TAG !u! tag:unity3d.com,2011:
--- !u!114 &11400000
MonoBehaviour:
  m_ObjectHideFlags: 0
  m_CorrespondingSourceObject: {fileID: 0}
  m_PrefabInstance: {fileID: 0}
  m_PrefabAsset: {fileID: 0}
  m_GameObject: {fileID: 0}
  m_Enabled: 1
  m_EditorHideFlags: 0
  m_Script: {fileID: 11500000, guid: 94fe1cd1a6548f4499331bae55565152, type: 3}
  m_Name: StationaryGuard
  m_EditorClassIdentifier: 
  _IsNotMoving: 1
  _IsGuard: 1
  _IsDoctor: 0
